<?xml version="1.0" encoding="utf-8"?>
<COLLADA xmlns="http://www.collada.org/2005/11/COLLADASchema" version="1.4.1">
<asset>
	<contributor>
		<author>Anonymous</author>
		<authoring_tool>Collada Exporter for Blender 2.6+, by Juan Linietsky (juan@codenix.com)</authoring_tool>
	</contributor>
	<created>2021-12-19T19:49:03Z</created>
	<modified>2021-12-19T19:49:03Z</modified>
	<unit meter="1.0" name="meter"/>
	<up_axis>Z_UP</up_axis>
</asset>
<library_images>
	<image id="id-image-4" name="the_barrel">
		<init_from>textures/the_barrel.dds</init_from>
	</image>
</library_images>
<library_effects>
	<effect id="id-fx-3" name="barrel_material-fx">
		<profile_COMMON>
			<newparam sid="id-fx_surf-5">
				<surface type="2D">
					<init_from>id-image-4</init_from>
					<format>A8R8G8B8</format>
				</surface>
			</newparam>
			<newparam sid="id-fx_sampler-6">
				<sampler2D>
					<source>id-fx_surf-5</source>
				</sampler2D>
			</newparam>
			<technique sid="common">
				<blinn>
					<emission>
						<color>  0.800000011920929 0.800000011920929 0.800000011920929 1.0 </color>
					</emission>
					<ambient>
						<color>  0.0 0.0 0.0 1.0 </color>
					</ambient>
					<diffuse>
						<texture texture="id-fx_sampler-6" texcoord="CHANNEL1"/>
					</diffuse>
					<specular>
						<color>  1.0 1.0 1.0 1.0 </color>
					</specular>
					<shininess>
						<float>50</float>
					</shininess>
					<reflective>
						<color>  0.5 0.5 0.5 1.0 </color>
					</reflective>
					<index_of_refraction>
						<float>1.2</float>
					</index_of_refraction>
				</blinn>
			</technique>
			<extra>
				<technique profile="FCOLLADA">
				</technique>
				<technique profile="GOOGLEEARTH">
					<double_sided>1</double_sided>
				</technique>
			</extra>
		</profile_COMMON>
	</effect>
</library_effects>
<library_materials>
	<material id="id-material-7" name="barrel_material">
		<instance_effect url="#id-fx-3"/>
	</material>
</library_materials>
<library_geometries>
	<geometry id="id-mesh-2" name="collisionmesh">
		<mesh>
			<source id="id-mesh-2-positions">
				<float_array id="id-mesh-2-positions-array" count="165"> 17.303083 -17.303079 0.531646 31.610585 4e-06 39.969853 22.352055 -22.352057 39.969853 17.303083 -17.303079 79.408059 24.470253 4e-06 79.408059 4e-06 -24.470249 79.408059 -22.352049 -22.352057 39.969853 4e-06 -31.610585 39.969853 -24.470249 -2e-06 79.408059 -31.610585 -4e-06 39.969853 -22.352055 22.352053 39.969853 -17.303079 17.303078 79.408059 -4e-06 31.610585 39.969853 -2e-06 24.470253 79.408059 22.352053 22.352057 39.969853 -17.303073 -17.303086 0.531646 24.470253 4e-06 0.531646 17.303079 17.303083 0.531646 -2e-06 24.470253 0.531646 -24.470245 -2e-06 0.531646 -17.303079 17.303078 0.531646 4e-06 -24.470245 0.531646 -17.303079 17.303078 0.531646 -2e-06 24.470253 0.531646 4e-06 -24.470245 0.531646 -24.470249 -2e-06 79.408059 4e-06 -24.470249 79.408059 24.470253 4e-06 79.408059 17.303079 17.303083 79.408059 -17.303073 -17.303086 79.408059 -2e-06 24.470253 0.531646 17.303079 17.303083 0.531646 4e-06 -24.470245 0.531646 17.303079 17.303083 0.531646 24.470253 4e-06 0.531646 4e-06 -24.470245 0.531646 24.470253 4e-06 0.531646 17.303083 -17.303079 0.531646 -17.303073 -17.303086 0.531646 -24.470245 -2e-06 0.531646 -24.470245 -2e-06 0.531646 -17.303079 17.303078 0.531646 4e-06 -24.470245 0.531646 24.470253 4e-06 79.408059 17.303079 17.303083 79.408059 -2e-06 24.470253 79.408059 -2e-06 24.470253 79.408059 -17.303079 17.303078 79.408059 -17.303079 17.303078 79.408059 -24.470249 -2e-06 79.408059 24.470253 4e-06 79.408059 -24.470249 -2e-06 79.408059 -17.303073 -17.303086 79.408059 4e-06 -24.470249 79.408059 17.303083 -17.303079 79.408059</float_array>
				<technique_common>
				<accessor source="#id-mesh-2-positions-array" count="55" stride="3">
					<param name="X" type="float"/>
					<param name="Y" type="float"/>
					<param name="Z" type="float"/>
				</accessor>
				</technique_common>
			</source>
			<source id="id-mesh-2-normals">
				<float_array id="id-mesh-2-normals-array" count="165"> 0.507584 -0.507584 -0.696188 1.0 0.0 0.0 0.707083 -0.707083 0.0 0.507584 -0.507584 0.696188 0.717826 0.0 0.696188 0.0 -0.717826 0.696188 -0.707083 -0.707083 0.0 0.0 -1.0 0.0 -0.717826 0.0 0.696188 -1.0 0.0 0.0 -0.707083 0.707083 0.0 -0.507584 0.507584 0.696188 0.0 1.0 0.0 0.0 0.717826 0.696188 0.707083 0.707083 0.0 -0.507584 -0.507584 -0.696188 0.717826 0.0 -0.696188 0.507584 0.507584 -0.696188 0.0 0.717826 -0.696188 -0.717826 0.0 -0.696188 -0.507584 0.507584 -0.696188 0.0 -0.717826 -0.696188 -0.0 0.0 -1.0 -0.0 0.0 -1.0 -0.0 0.0 -1.0 0.0 0.0 1.0 0.0 0.0 1.0 0.0 0.0 1.0 0.507584 0.507584 0.696188 -0.507584 -0.507584 0.696188 0.0 0.0 -1.0 0.0 0.0 -1.0 0.0 0.0 -1.0 -0.0 0.0 -1.0 -0.0 0.0 -1.0 -0.0 0.0 -1.0 0.0 0.0 -1.0 0.0 0.0 -1.0 0.0 0.0 -1.0 0.0 0.0 -1.0 0.0 0.0 -1.0 0.0 0.0 -1.0 0.0 0.0 -1.0 1e-06 0.0 1.0 1e-06 0.0 1.0 1e-06 0.0 1.0 0.0 0.0 1.0 0.0 0.0 1.0 -0.0 0.0 1.0 -0.0 0.0 1.0 -0.0 0.0 1.0 -1e-06 0.0 1.0 -1e-06 0.0 1.0 -1e-06 0.0 1.0 0.0 0.0 1.0</float_array>
				<technique_common>
				<accessor source="#id-mesh-2-normals-array" count="55" stride="3">
					<param name="X" type="float"/>
					<param name="Y" type="float"/>
					<param name="Z" type="float"/>
				</accessor>
				</technique_common>
			</source>
			<vertices id="id-mesh-2-vertices">
				<input semantic="POSITION" source="#id-mesh-2-positions"/>
			</vertices>
			<triangles count="44">
				<input semantic="VERTEX" source="#id-mesh-2-vertices" offset="0"/>
				<input semantic="NORMAL" source="#id-mesh-2-normals" offset="0"/>
				<p> 0 1 2 3 1 4 5 2 3 5 6 7 6 8 9 8 10 9 11 12 10 13 14 12 15 7 6 16 14 1 17 12 14 18 10 12 19 10 20 21 2 7 19 6 9 22 23 24 25 26 27 4 14 28 0 16 1 3 2 1 5 7 2 5 29 6 6 29 8 8 11 10 11 13 12 13 28 14 15 21 7 16 17 14 17 18 12 18 20 10 19 9 10 21 0 2 19 15 6 30 31 32 33 34 35 36 37 32 32 38 39 40 41 42 43 44 45 46 47 27 48 49 50 51 52 53 26 54 27 4 1 14 </p>
			</triangles>
		</mesh>
	</geometry>
	<geometry id="id-mesh-8" name="the_barrel">
		<mesh>
			<source id="id-mesh-8-positions">
				<float_array id="id-mesh-8-positions-array" count="1938"> -22.582729 -1e-06 79.210199 -19.089426 -6.202532 79.210199 -20.071811 -1e-06 79.210199 -21.477453 -6.978448 79.210199 -16.238436 -11.797915 79.210199 -18.269811 -13.273796 79.210199 -11.797914 -16.238436 79.210199 -13.273793 -18.269811 79.210199 -6.202529 -19.089426 79.210199 2e-06 -22.582729 79.210199 2e-06 -20.071811 79.210199 6.978448 -21.47745 79.210199 6.202533 -19.089426 79.210199 11.797914 -16.238436 79.210199 18.269813 -13.273792 79.210199 16.238438 -11.797913 79.210199 19.089428 -6.202525 79.210199 21.477453 -6.978441 79.210199 20.071811 3e-06 79.210199 22.582729 3e-06 79.210199 19.089426 6.202532 79.210199 18.269811 13.273798 79.210199 16.238436 11.797918 79.210199 13.273789 18.269813 79.210199 11.79791 16.238439 79.210199 6.978447 21.47745 79.210199 6.202531 19.089426 79.210199 -1e-06 20.071811 79.210199 -1e-06 22.582729 79.210199 -6.202535 19.089426 79.210199 -13.273801 18.269807 79.210199 -11.79792 16.238433 79.210199 -16.238441 11.797908 79.210199 -18.269817 13.273786 79.210199 -19.089426 6.202528 79.210199 -21.477453 6.978444 79.210199 -20.071811 -1e-06 79.210199 -20.071811 -1e-06 79.210199 -19.089426 -6.202532 77.048626 -20.071811 -1e-06 77.048626 -19.089426 -6.202532 79.210199 -16.238436 -11.797915 77.048626 -16.238436 -11.797915 79.210199 -11.797914 -16.238436 77.048626 -11.797914 -16.238436 79.210199 -6.202529 -19.089426 77.048626 -6.202529 -19.089426 79.210199 2e-06 -20.071811 77.048626 2e-06 -20.071811 79.210199 6.202533 -19.089426 77.048626 6.202533 -19.089426 79.210199 11.797914 -16.238436 77.048626 11.797914 -16.238436 79.210199 16.238438 -11.797913 77.048626 16.238438 -11.797913 79.210199 19.089428 -6.202525 77.048626 19.089428 -6.202525 79.210199 20.071811 3e-06 77.048626 20.071811 3e-06 79.210199 19.089426 6.202532 77.048626 19.089426 6.202532 79.210199 16.238436 11.797918 77.048626 16.238436 11.797918 79.210199 11.79791 16.238439 77.048626 11.79791 16.238439 79.210199 6.202531 19.089426 77.048626 6.202531 19.089426 79.210199 -1e-06 20.071811 77.048626 -1e-06 20.071811 79.210199 -6.202535 19.089426 77.048626 -6.202535 19.089426 79.210199 -11.79792 16.238433 77.048626 -11.79792 16.238433 79.210199 -16.238441 11.797908 77.048626 -16.238441 11.797908 79.210199 -19.089426 6.202528 77.048626 -19.089426 6.202528 79.210199 -20.071811 -1e-06 77.048626 -19.089426 -6.202532 77.048626 2e-06 -20.071811 77.048626 19.089428 -6.202525 77.048626 11.79791 16.238439 77.048626 -1e-06 20.071811 77.048626 -11.79792 16.238433 77.048626 -27.620778 -1e-06 64.998075 -24.274944 -7.887409 71.671659 -25.524184 -1e-06 71.671659 -22.345676 -16.235087 64.998075 -20.649498 -15.00274 71.671659 -15.002737 -20.649498 71.671659 -16.235083 -22.34568 64.998075 -7.887405 -24.274944 71.671659 -8.535287 -26.268921 64.998075 2e-06 -25.524184 71.671659 3e-06 -27.620778 64.998075 7.88741 -24.274942 71.671659 8.535292 -26.268919 64.998075 15.002738 -20.649498 71.671659 16.235085 -22.345676 64.998075 20.6495 -15.002735 71.671659 22.345682 -16.235081 64.998075 24.274944 -7.8874 71.671659 26.268921 -8.535283 64.998075 25.524184 4e-06 71.671659 27.620778 4e-06 64.998075 24.274944 7.887408 71.671659 26.268921 8.53529 64.998075 20.649498 15.002743 71.671659 22.345674 16.23509 64.998075 15.002734 20.649503 71.671659 16.235078 22.345682 64.998075 7.887408 24.274942 71.671659 8.53529 26.268919 64.998075 -2e-06 25.524184 71.671659 -2e-06 27.620778 64.998075 -7.887412 24.274942 71.671659 -8.535294 26.268919 64.998075 -15.002748 20.649496 71.671659 -16.235093 22.345672 64.998075 -20.649505 15.00273 71.671659 -22.345686 16.235075 64.998075 -24.274944 7.887404 71.671659 -27.620778 -1e-06 64.998075 -25.524184 -1e-06 71.671659 -28.670105 -2e-06 60.602822 -27.665883 -8.989192 62.969106 -29.08963 -2e-06 62.969106 -23.194602 -16.851867 60.602822 -23.534004 -17.098458 62.969106 -17.098453 -23.534006 62.969106 -16.851864 -23.194606 60.602822 -8.989188 -27.665883 62.969106 -8.859548 -27.266892 60.602822 3e-06 -29.08963 62.969106 3e-06 -28.670105 60.602822 8.989193 -27.665881 62.969106 8.859553 -27.26689 60.602822 17.098455 -23.534004 62.969106 16.851865 -23.194602 60.602822 23.534008 -17.098452 62.969106 23.194606 -16.851862 60.602822 27.665885 -8.989182 62.969106 28.670105 4e-06 60.602822 29.08963 4e-06 62.969106 27.665883 8.989191 62.969106 23.1946 16.85187 60.602822 23.534002 17.098461 62.969106 16.851858 23.194608 60.602822 17.098448 23.53401 62.969106 8.989191 27.665881 62.969106 8.859551 27.26689 60.602822 -2e-06 29.08963 62.969106 -2e-06 28.670105 60.602822 -8.989195 27.665881 62.969106 -8.859555 27.26689 60.602822 -17.098464 23.533998 62.969106 -16.851873 23.194596 60.602822 -23.534015 17.098445 62.969106 -23.194613 16.851855 60.602822 -27.665883 8.989187 62.969106 -28.670105 -2e-06 60.602822 -29.08963 -2e-06 62.969106 -22.582729 -1e-06 79.210199 -22.74217 -7.389379 75.802102 -21.477453 -6.978448 79.210199 -18.269811 -13.273796 79.210199 -14.055433 -19.345645 75.802102 -13.273793 -18.269811 79.210199 -7.389378 -22.74217 75.802102 -6.978445 -21.477453 79.210199 2e-06 -22.582729 79.210199 2e-06 -23.912532 75.802102 6.978448 -21.47745 79.210199 7.38938 -22.742168 75.802102 13.273793 -18.269811 79.210199 14.055433 -19.345645 75.802102 18.269813 -13.273792 79.210199 19.345647 -14.055431 75.802102 21.477453 -6.978441 79.210199 22.742172 -7.389373 75.802102 22.582729 3e-06 79.210199 22.74217 7.389379 75.802102 21.477453 6.978447 79.210199 18.269811 13.273798 79.210199 19.345643 14.055437 75.802102 13.273789 18.269813 79.210199 7.38938 22.742168 75.802102 6.978447 21.47745 79.210199 -1e-06 22.582729 79.210199 -2e-06 23.912532 75.802102 -6.978451 21.47745 79.210199 -7.389382 22.742168 75.802102 -13.273801 18.269807 79.210199 -14.05544 19.345641 75.802102 -18.269817 13.273786 79.210199 -22.74217 7.389377 75.802102 -21.477453 6.978444 79.210199 -22.582729 -1e-06 79.210199 -24.377607 -7.920766 74.003505 -25.632133 -1e-06 74.003505 -20.736829 -15.066191 74.003505 -15.066188 -20.736829 74.003505 -7.920762 -24.377607 74.003505 2e-06 -25.632133 74.003505 7.920767 -24.377604 74.003505 15.066189 -20.736829 74.003505 20.736831 -15.066186 74.003505 24.377609 -7.920758 74.003505 25.632133 4e-06 74.003505 24.377607 7.920765 74.003505 20.736829 15.066194 74.003505 15.066183 20.736834 74.003505 7.920765 24.377604 74.003505 -2e-06 25.632133 74.003505 -7.920769 24.377604 74.003505 -15.066197 20.736825 74.003505 -20.736838 15.066178 74.003505 -24.377607 7.920762 74.003505 -25.632133 -1e-06 74.003505 -22.74217 -7.389379 75.802102 -23.912532 -1e-06 75.802102 -19.345645 -14.055434 75.802102 -14.055433 -19.345645 75.802102 -7.389378 -22.74217 75.802102 2e-06 -23.912532 75.802102 7.38938 -22.742168 75.802102 14.055433 -19.345645 75.802102 19.345647 -14.055431 75.802102 22.742172 -7.389373 75.802102 23.912532 3e-06 75.802102 22.74217 7.389379 75.802102 19.345643 14.055437 75.802102 14.055429 19.345647 75.802102 7.38938 22.742168 75.802102 -2e-06 23.912532 75.802102 -7.389382 22.742168 75.802102 -14.05544 19.345641 75.802102 -19.345649 14.055424 75.802102 -22.74217 7.389377 75.802102 -23.912532 -1e-06 75.802102 -26.268921 -8.535291 64.998075 -26.268921 8.535286 64.998075 -30.096124 -2e-06 52.070705 -27.266892 -8.859552 60.602822 -28.623118 -9.300216 52.070705 -24.348277 -17.690062 52.070705 -9.300212 -28.623118 52.070705 3e-06 -30.096124 52.070705 9.300217 -28.623114 52.070705 17.690058 -24.348277 52.070705 24.348283 -17.690054 52.070705 27.266894 -8.859542 60.602822 30.096124 4e-06 52.070705 27.266892 8.859551 60.602822 24.348277 17.690064 52.070705 17.690051 24.348285 52.070705 9.300216 28.623114 52.070705 -2e-06 30.096124 52.070705 -9.30022 28.623114 52.070705 -17.690068 24.348271 52.070705 -24.348288 17.690047 52.070705 -27.266892 8.859546 60.602822 -30.096124 -2e-06 52.070705 -31.461374 -2e-06 39.969853 -29.199794 -9.48759 43.888129 -30.70248 -2e-06 43.888129 -29.921542 -9.722102 39.969853 -24.838828 -18.046466 43.888129 -25.452785 -18.492534 39.969853 -18.046464 -24.838832 43.888129 -9.722098 -29.921542 39.969853 -9.487586 -29.199794 43.888129 3e-06 -30.70248 43.888129 9.722102 -29.921542 39.969853 9.487591 -29.19979 43.888129 18.492531 -25.452785 39.969853 18.046466 -24.838828 43.888129 24.838834 -18.046462 43.888129 25.452792 -18.492527 39.969853 29.199794 -9.487581 43.888129 29.921546 -9.722091 39.969853 30.70248 4e-06 43.888129 31.461374 4e-06 39.969853 29.199794 9.487589 43.888129 29.921542 9.722101 39.969853 24.838828 18.04647 43.888129 25.452783 18.492538 39.969853 18.046458 24.838836 43.888129 18.492523 25.452792 39.969853 9.48759 29.19979 43.888129 9.722101 29.921542 39.969853 -2e-06 30.70248 43.888129 -2e-06 31.461374 39.969853 -9.487594 29.19979 43.888129 -18.492542 25.452781 39.969853 -18.046474 24.838822 43.888129 -25.452796 18.492521 39.969853 -24.838838 18.046454 43.888129 -29.921542 9.722096 39.969853 -29.199794 9.487585 43.888129 -30.70248 -2e-06 43.888129 -17.690058 -24.348281 52.070705 28.623118 -9.300207 52.070705 28.623118 9.300216 52.070705 -28.623118 9.300212 52.070705 17.690049 24.348283 27.869 24.838828 18.046468 36.051576 24.348277 17.690062 27.869 -28.623118 -9.300216 27.869 -30.70248 -2e-06 36.051576 -30.096124 -2e-06 27.869 29.199794 -9.487579 36.051576 24.838834 -18.046462 36.051576 -16.851872 23.194594 19.336883 -9.30022 28.623114 27.869 -8.859555 27.26689 19.336883 3e-06 -28.670103 19.336883 -9.300212 -28.623118 27.869 -8.859548 -27.26689 19.336883 22.345674 16.23509 14.941632 17.098448 23.534008 16.970599 23.534 17.098461 16.970599 -26.268921 -8.535291 14.941632 -29.089626 -2e-06 16.970599 -27.620778 -1e-06 14.941632 22.742172 -7.389373 4.137603 20.736831 -15.066186 5.936203 19.345647 -14.055431 4.137603 -15.066196 20.736825 5.936203 -7.887412 24.274942 8.268044 -7.920769 24.377604 5.936203 2e-06 -25.632131 5.936203 -7.887404 -24.274944 8.268044 -7.920761 -24.377604 5.936203 13.273788 18.269813 0.729506 19.345643 14.055437 4.137603 18.269811 13.273798 0.729506 -22.582729 -1e-06 0.729506 -22.74217 -7.389379 4.137603 -23.91253 -1e-06 4.137603 27.665885 -8.989182 16.970599 23.194606 -16.851862 19.336883 23.534008 -17.098452 16.970599 20.649498 15.002743 8.268044 26.268919 8.53529 14.941632 24.274942 7.887408 8.268044 -24.274942 -7.887409 8.268044 -25.524182 -1e-06 8.268044 16.238436 11.797917 2.891083 19.089426 6.202531 0.729506 19.089426 6.202531 2.891083 -19.089426 -6.202532 2.891083 -20.071809 -1e-06 0.729506 -20.071809 -1e-06 2.891083 19.089428 -6.202525 0.729506 22.582726 3e-06 0.729506 21.477453 -6.978441 0.729506 29.199794 9.487589 36.051576 28.623114 9.300215 27.869 -30.70248 -2e-06 36.051576 -29.19979 9.487584 36.051576 18.046464 -24.838828 36.051576 -2e-06 30.096122 27.869 -2e-06 28.670103 19.336883 -17.690056 -24.348281 27.869 -16.851862 -23.194604 19.336883 27.665881 8.989191 16.970599 -23.91253 -1e-06 4.137603 -24.377607 7.920762 5.936203 -22.74217 7.389377 4.137603 14.055432 -19.345643 4.137603 15.066188 -20.736829 5.936203 -2e-06 25.524184 8.268044 -2e-06 25.632131 5.936203 -15.002737 -20.649496 8.268044 -15.066188 -20.736829 5.936203 22.74217 7.389379 4.137603 21.477453 6.978447 0.729506 -29.089626 -2e-06 16.970599 -27.26689 8.859545 19.336883 -27.665883 8.989187 16.970599 16.851864 -23.194602 19.336883 17.098455 -23.534004 16.970599 27.620776 4e-06 14.941632 25.524184 4e-06 8.268044 -16.238441 11.797906 2.891083 6.202531 19.089424 2.891083 20.071809 3e-06 2.891083 20.071809 3e-06 0.729506 20.071809 3e-06 2.891083 -19.089426 6.202528 0.729506 -22.582729 -1e-06 0.729506 -21.477453 6.978444 0.729506 16.238438 -11.797912 0.729506 18.269811 -13.273792 0.729506 30.096122 4e-06 27.869 30.702476 4e-06 36.051576 -24.838836 18.046454 36.051576 9.487591 -29.19979 36.051576 9.300215 28.623114 27.869 8.859551 27.26689 19.336883 -24.348277 -17.690062 27.869 -23.1946 -16.851865 19.336883 29.08963 4e-06 16.970599 -20.736838 15.066177 5.936203 -19.345649 14.055424 4.137603 7.920767 -24.377604 5.936203 7.38938 -22.742166 4.137603 7.887408 24.274942 8.268044 7.920764 24.377604 5.936203 -20.649498 -15.00274 8.268044 -20.736829 -15.066189 5.936203 23.91253 3e-06 4.137603 22.582726 3e-06 0.729506 -23.19461 16.851853 19.336883 -23.534012 17.098444 16.970599 8.989193 -27.665881 16.970599 8.859552 -27.26689 19.336883 3e-06 -29.089626 16.970599 -8.989188 -27.665881 16.970599 -17.098453 -23.534006 16.970599 -23.534002 -17.098455 16.970599 -27.665883 -8.989192 16.970599 -27.26689 -8.859551 19.336883 9.300216 -28.623114 27.869 3e-06 -30.70248 36.051576 3e-06 -30.096122 27.869 9.48759 29.19979 36.051576 18.046458 24.838836 36.051576 -24.838828 -18.046466 36.051576 -29.19979 -9.48759 36.051576 28.670105 4e-06 19.336883 28.623114 -9.300207 27.869 27.266892 -8.859542 19.336883 -22.345684 16.235075 14.941632 -17.098464 23.533996 16.970599 -16.235093 22.34567 14.941632 8.535292 -26.268917 14.941632 3e-06 -27.620778 14.941632 7.38938 22.742166 4.137603 15.066183 20.736834 5.936203 14.055427 19.345645 4.137603 -19.345645 -14.055434 4.137603 -24.377607 -7.920766 5.936203 -22.74217 -7.389379 4.137603 24.377609 -7.920757 5.936203 24.274944 -7.887399 8.268044 -13.2738 18.269804 0.729506 -19.345649 14.055424 4.137603 -14.05544 19.345641 4.137603 2e-06 -22.582726 0.729506 7.38938 -22.742166 4.137603 2e-06 -23.912532 4.137603 16.851858 23.194606 19.336883 -15.002748 20.649496 8.268044 -8.535294 26.268917 14.941632 7.88741 -24.274942 8.268044 2e-06 -25.524184 8.268044 -11.79792 16.238431 2.891083 -6.202534 19.089424 0.729506 -6.202534 19.089424 2.891083 6.202533 -19.089424 2.891083 2e-06 -20.071811 0.729506 2e-06 -20.071811 2.891083 -1e-06 20.071811 0.729506 6.978447 21.477448 0.729506 6.202531 19.089424 0.729506 -6.202529 -19.089424 0.729506 -13.273793 -18.269811 0.729506 -11.797914 -16.238434 0.729506 24.348281 -17.690054 27.869 -18.046472 24.83882 36.051576 -9.722106 29.921542 39.969853 -9.487594 29.19979 36.051576 -9.487585 -29.199794 36.051576 3e-06 -31.461374 39.969853 -9.722098 -29.921542 39.969853 23.194598 16.851868 19.336883 -28.670105 -2e-06 19.336883 22.345682 -16.235079 14.941632 -14.05544 19.345641 4.137603 -7.389382 22.742166 4.137603 2e-06 -23.912532 4.137603 -7.389378 -22.742168 4.137603 20.736829 15.066194 5.936203 15.002732 20.6495 8.268044 -25.632131 -1e-06 5.936203 21.477453 -6.978441 0.729506 19.345647 -14.055431 4.137603 18.269811 -13.273792 0.729506 -8.989194 27.665881 16.970599 -25.524182 -1e-06 8.268044 -26.268921 8.535285 14.941632 -24.274942 7.887404 8.268044 20.6495 -15.002735 8.268044 -20.071809 -1e-06 2.891083 -19.089426 6.202528 0.729506 -19.089426 6.202528 2.891083 19.089428 -6.202525 2.891083 16.238438 -11.797912 0.729506 16.238438 -11.797912 2.891083 -16.238441 11.797906 0.729506 -13.2738 18.269804 0.729506 -11.79792 16.238431 0.729506 6.202533 -19.089424 0.729506 13.273792 -18.269811 0.729506 6.978448 -21.477448 0.729506 -24.348285 17.690047 27.869 -17.690068 24.348271 27.869 16.235076 22.345682 14.941632 8.98919 27.665881 16.970599 23.91253 3e-06 4.137603 -20.649505 15.00273 8.268044 7.38938 22.742166 4.137603 14.055427 19.345645 4.137603 -18.269809 -13.273795 0.729506 -21.477453 -6.978448 0.729506 11.79791 16.238439 2.891083 16.238436 11.797917 0.729506 -16.238436 -11.797915 2.891083 -19.089426 -6.202532 0.729506 19.089426 6.202531 0.729506 20.071809 3e-06 0.729506 17.690058 -24.348277 27.869 -2e-06 30.70248 36.051576 -18.492529 -25.45279 39.969853 27.266892 8.85955 19.336883 16.235085 -22.345676 14.941632 -2e-06 23.912532 4.137603 -14.055432 -19.345643 4.137603 24.377607 7.920765 5.936203 25.632133 4e-06 5.936203 -18.269817 13.273786 0.729506 -22.74217 7.389377 4.137603 13.273792 -18.269811 0.729506 6.978448 -21.477448 0.729506 -2e-06 29.089626 16.970599 -16.238441 11.797906 2.891083 -11.79792 16.238431 0.729506 11.797914 -16.238434 2.891083 6.202533 -19.089424 0.729506 -6.202534 19.089424 0.729506 -1e-06 22.582726 0.729506 2e-06 -20.071811 0.729506 -6.978445 -21.47745 0.729506 -18.046462 -24.838832 36.051576 -22.582729 -1e-06 0.729506 -21.477453 6.978444 0.729506 14.055432 -19.345643 4.137603 15.002738 -20.649496 8.268044 -16.238441 11.797906 0.729506 11.797914 -16.238434 0.729506 -6.978451 21.477448 0.729506 2e-06 -22.582726 0.729506 -28.623118 9.300212 27.869 -8.535287 -26.268921 14.941632 19.345643 14.055437 4.137603 -7.389382 22.742166 4.137603 -6.978451 21.477448 0.729506 -7.389378 -22.742168 4.137603 -6.978445 -21.47745 0.729506 -2e-06 27.620778 14.941632 -1e-06 20.071811 0.729506 -1e-06 20.071811 2.891083 -6.202529 -19.089424 0.729506 -6.202529 -19.089424 2.891083 13.273788 18.269813 0.729506 11.79791 16.238439 0.729506 -18.269809 -13.273795 0.729506 -16.238436 -11.797915 0.729506 -30.096124 -2e-06 27.869 26.268921 -8.535283 14.941632 22.742172 -7.389373 4.137603 -6.202529 -19.089424 2.891083 -16.238436 -11.797915 2.891083 19.089428 -6.202525 0.729506 -18.269817 13.273786 0.729506 11.797914 -16.238434 0.729506 8.53529 26.268917 14.941632 -22.345674 -16.235087 14.941632 -1e-06 22.582726 0.729506 6.978447 21.477448 0.729506 -14.055432 -19.345643 4.137603 -19.345645 -14.055434 4.137603 6.202531 19.089424 2.891083 11.79791 16.238439 0.729506 -11.797914 -16.238434 2.891083 -16.238436 -11.797915 0.729506 16.238436 11.797917 0.729506 21.477453 6.978447 0.729506 -19.089426 -6.202532 0.729506 -22.582729 -1e-06 0.729506 -20.071809 -1e-06 0.729506 -16.235083 -22.345678 14.941632 22.74217 7.389379 4.137603 -25.632131 -1e-06 5.936203 -2e-06 23.912532 4.137603 -13.273793 -18.269811 0.729506 6.202531 19.089424 0.729506 -11.797914 -16.238434 0.729506 18.269811 13.273798 0.729506 -21.477453 -6.978448 0.729506 -6.978445 -21.477453 79.210199 13.273793 -18.269811 79.210199 21.477453 6.978447 79.210199 -6.978451 21.47745 79.210199 -22.582729 -1e-06 79.210199 -20.071811 -1e-06 79.210199 20.071811 3e-06 77.048626 -20.071811 -1e-06 77.048626 -16.238436 -11.797915 77.048626 -11.797914 -16.238436 77.048626 -6.202529 -19.089426 77.048626 6.202533 -19.089426 77.048626 11.797914 -16.238436 77.048626 16.238438 -11.797913 77.048626 -16.238441 11.797908 77.048626 -19.089426 6.202528 77.048626 19.089426 6.202532 77.048626 16.238436 11.797918 77.048626 6.202531 19.089426 77.048626 -6.202535 19.089426 77.048626 -19.345645 -14.055434 75.802102 23.912532 3e-06 75.802102 14.055429 19.345647 75.802102 -19.345649 14.055424 75.802102 -31.461374 -2e-06 39.969853 -28.670105 -2e-06 19.336883 -20.071809 -1e-06 2.891083 -19.089426 6.202528 2.891083 -11.79792 16.238431 2.891083 -6.202534 19.089424 2.891083 -1e-06 20.071811 2.891083 11.79791 16.238439 2.891083 16.238436 11.797917 2.891083 19.089426 6.202531 2.891083 -20.071809 -1e-06 0.729506 -27.620778 -1e-06 14.941632 -20.071809 -1e-06 0.729506 -19.089426 -6.202532 2.891083 19.089428 -6.202525 2.891083 16.238438 -11.797912 2.891083 11.797914 -16.238434 2.891083 6.202533 -19.089424 2.891083 2e-06 -20.071811 2.891083 -11.797914 -16.238434 2.891083</float_array>
				<technique_common>
				<accessor source="#id-mesh-8-positions-array" count="646" stride="3">
					<param name="X" type="float"/>
					<param name="Y" type="float"/>
					<param name="Z" type="float"/>
				</accessor>
				</technique_common>
			</source>
			<source id="id-mesh-8-normals">
				<float_array id="id-mesh-8-normals-array" count="1938"> 0.0 0.0 1.0 0.0 0.0 1.0 0.0 0.0 0.999969 0.0 0.0 1.0 0.0 0.0 0.999969 0.0 0.0 1.0 0.0 0.0 1.0 0.0 0.0 1.0 0.0 0.0 1.0 0.0 0.0 1.0 0.0 0.0 1.0 0.0 0.0 1.0 0.0 0.0 0.999969 0.0 0.0 0.999969 0.0 0.0 1.0 0.0 0.0 0.999969 0.0 0.0 1.0 0.0 0.0 1.0 0.0 0.0 1.0 0.0 0.0 1.0 0.0 0.0 0.999969 0.0 0.0 1.0 0.0 0.0 1.0 0.0 0.0 1.0 0.0 0.0 1.0 0.0 0.0 1.0 0.0 0.0 1.0 0.0 0.0 0.999969 0.0 0.0 1.0 0.0 0.0 1.0 0.0 0.0 1.0 0.0 0.0 1.0 0.0 0.0 1.0 0.0 0.0 1.0 0.0 0.0 1.0 0.0 0.0 1.0 0.0 0.0 0.999969 1.0 0.0 0.0 0.951048 0.309 0.0 1.0 0.0 0.0 0.951048 0.309 0.0 0.809015 0.587756 0.0 0.809015 0.587756 0.0 0.587756 0.809015 0.0 0.587756 0.809015 0.0 0.309 0.951048 0.0 0.309 0.951048 0.0 0.0 1.0 0.0 0.0 1.0 0.0 -0.309 0.951048 0.0 -0.309 0.951048 0.0 -0.587756 0.809015 0.0 -0.587756 0.809015 0.0 -0.809015 0.587756 0.0 -0.809015 0.587756 0.0 -0.951048 0.309 0.0 -0.951048 0.309 0.0 -1.0 0.0 0.0 -1.0 0.0 0.0 -0.951048 -0.309 0.0 -0.951048 -0.309 0.0 -0.809015 -0.587756 0.0 -0.809015 -0.587756 0.0 -0.587756 -0.809015 0.0 -0.587756 -0.809015 0.0 -0.309 -0.951048 0.0 -0.309 -0.951048 0.0 0.0 -1.0 0.0 0.0 -1.0 0.0 0.309 -0.951048 0.0 0.309 -0.951048 0.0 0.587756 -0.809015 0.0 0.587756 -0.809015 0.0 0.809015 -0.587756 0.0 0.809015 -0.587756 0.0 0.951048 -0.309 0.0 0.951048 -0.309 0.0 1.0 0.0 0.0 0.0 0.0 1.0 0.0 0.0 1.0 0.0 0.0 1.0 0.0 0.0 1.0 0.0 0.0 1.0 0.0 0.0 1.0 -0.890255 0.0 0.455397 -0.942839 -0.306345 0.130985 -0.991363 0.0 0.130985 -0.720237 -0.52327 0.455397 -0.802026 -0.58272 0.130985 -0.58272 -0.802026 0.130985 -0.52327 -0.720237 0.455397 -0.306345 -0.942839 0.130985 -0.275094 -0.846706 0.455397 0.0 -0.991363 0.130985 0.0 -0.890255 0.455397 0.306345 -0.942839 0.130985 0.275094 -0.846706 0.455397 0.58272 -0.802026 0.130985 0.52327 -0.720237 0.455397 0.802026 -0.58272 0.130985 0.720237 -0.52327 0.455397 0.942839 -0.306345 0.130985 0.846706 -0.275094 0.455397 0.991363 0.0 0.130985 0.890255 0.0 0.455397 0.942839 0.306345 0.130985 0.846706 0.275094 0.455397 0.802026 0.58272 0.130985 0.720237 0.52327 0.455397 0.58272 0.802026 0.130985 0.52327 0.720237 0.455397 0.306345 0.942839 0.130985 0.275094 0.846706 0.455397 0.0 0.991363 0.130985 0.0 0.890255 0.455397 -0.306345 0.942839 0.130985 -0.275094 0.846706 0.455397 -0.58272 0.802026 0.130985 -0.52327 0.720237 0.455397 -0.802026 0.58272 0.130985 -0.720237 0.52327 0.455397 -0.942839 0.306345 0.130985 -0.890255 0.0 0.455397 -0.991363 0.0 0.130985 -0.999969 0.0 -0.005005 -0.928678 -0.301737 0.215613 -0.97647 0.0 0.215613 -0.808985 -0.587756 -0.005005 -0.789972 -0.573931 0.215613 -0.573931 -0.789972 0.215613 -0.587756 -0.808985 -0.005005 -0.301737 -0.928678 0.215613 -0.309 -0.951018 -0.005005 0.0 -0.97647 0.215613 0.0 -0.999969 -0.005005 0.301737 -0.928678 0.215613 0.309 -0.951018 -0.005005 0.573931 -0.789972 0.215613 0.587756 -0.808985 -0.005005 0.789972 -0.573931 0.215613 0.808985 -0.587756 -0.005005 0.928678 -0.301737 0.215613 0.999969 0.0 -0.005005 0.97647 0.0 0.215613 0.928678 0.301737 0.215613 0.808985 0.587756 -0.005005 0.789972 0.573931 0.215613 0.587756 0.808985 -0.005005 0.573931 0.789972 0.215613 0.301737 0.928678 0.215613 0.309 0.951018 -0.005005 0.0 0.97647 0.215613 0.0 0.999969 -0.005005 -0.301737 0.928678 0.215613 -0.309 0.951018 -0.005005 -0.573931 0.789972 0.215613 -0.587756 0.808985 -0.005005 -0.789972 0.573931 0.215613 -0.808985 0.587756 -0.005005 -0.928678 0.301737 0.215613 -0.999969 0.0 -0.005005 -0.97647 0.0 0.215613 -0.931578 0.0 0.363475 -0.796472 -0.258766 0.546464 -0.885983 -0.287851 0.363475 -0.753655 -0.547563 0.363475 -0.492233 -0.677511 0.546464 -0.547563 -0.753655 0.363475 -0.258766 -0.796472 0.546464 -0.287851 -0.885983 0.363475 0.0 -0.931578 0.363475 0.0 -0.837458 0.546464 0.287851 -0.885983 0.363475 0.258766 -0.796472 0.546464 0.547563 -0.753655 0.363475 0.492233 -0.677511 0.546464 0.753655 -0.547563 0.363475 0.677511 -0.492233 0.546464 0.885983 -0.287851 0.363475 0.796472 -0.258766 0.546464 0.931578 0.0 0.363475 0.796472 0.258766 0.546464 0.885983 0.287851 0.363475 0.753655 0.547563 0.363475 0.677511 0.492233 0.546464 0.547563 0.753655 0.363475 0.258766 0.796472 0.546464 0.287851 0.885983 0.363475 0.0 0.931578 0.363475 0.0 0.837458 0.546464 -0.287851 0.885983 0.363475 -0.258766 0.796472 0.546464 -0.547563 0.753655 0.363475 -0.492233 0.677511 0.546464 -0.753655 0.547563 0.363475 -0.796472 0.258766 0.546464 -0.885983 0.287851 0.363475 -0.931578 0.0 0.363475 -0.894894 -0.29075 0.33845 -0.940947 0.0 0.33845 -0.761254 -0.553087 0.33845 -0.553087 -0.761254 0.33845 -0.29075 -0.894894 0.33845 0.0 -0.940947 0.33845 0.29075 -0.894894 0.33845 0.553087 -0.761254 0.33845 0.761254 -0.553087 0.33845 0.894894 -0.29075 0.33845 0.940947 0.0 0.33845 0.894894 0.29075 0.33845 0.761254 0.553087 0.33845 0.553087 0.761254 0.33845 0.29075 0.894894 0.33845 0.0 0.940947 0.33845 -0.29075 0.894894 0.33845 -0.553087 0.761254 0.33845 -0.761254 0.553087 0.33845 -0.894894 0.29075 0.33845 -0.940947 0.0 0.33845 -0.796472 -0.258766 0.546464 -0.837458 0.0 0.546464 -0.677511 -0.492233 0.546464 -0.492233 -0.677511 0.546464 -0.258766 -0.796472 0.546464 0.0 -0.837458 0.546464 0.258766 -0.796472 0.546464 0.492233 -0.677511 0.546464 0.677511 -0.492233 0.546464 0.796472 -0.258766 0.546464 0.837458 0.0 0.546464 0.796472 0.258766 0.546464 0.677511 0.492233 0.546464 0.492233 0.677511 0.546464 0.258766 0.796472 0.546464 0.0 0.837458 0.546464 -0.258766 0.796472 0.546464 -0.492233 0.677511 0.546464 -0.677511 0.492233 0.546464 -0.796472 0.258766 0.546464 -0.837458 0.0 0.546464 -0.846706 -0.275094 0.455397 -0.846706 0.275094 0.455397 -0.992889 0.0 0.118961 -0.951018 -0.309 -0.005005 -0.944273 -0.306803 0.118961 -0.803247 -0.583605 0.118961 -0.306803 -0.944273 0.118961 0.0 -0.992889 0.118961 0.306803 -0.944273 0.118961 0.583605 -0.803247 0.118961 0.803247 -0.583605 0.118961 0.951018 -0.309 -0.005005 0.992889 0.0 0.118961 0.951018 0.309 -0.005005 0.803247 0.583605 0.118961 0.583605 0.803247 0.118961 0.306803 0.944273 0.118961 0.0 0.992889 0.118961 -0.306803 0.944273 0.118961 -0.583605 0.803247 0.118961 -0.803247 0.583605 0.118961 -0.951018 0.309 -0.005005 -0.992889 0.0 0.118961 -1.0 0.0 0.0 -0.942595 -0.306253 0.133 -0.991089 0.0 0.133 -0.951048 -0.309 0.0 -0.801813 -0.582537 0.133 -0.809015 -0.587756 0.0 -0.582537 -0.801813 0.133 -0.309 -0.951048 0.0 -0.306253 -0.942595 0.133 0.0 -0.991089 0.133 0.309 -0.951048 0.0 0.306253 -0.942595 0.133 0.587756 -0.809015 0.0 0.582537 -0.801813 0.133 0.801813 -0.582537 0.133 0.809015 -0.587756 0.0 0.942595 -0.306253 0.133 0.951048 -0.309 0.0 0.991089 0.0 0.133 1.0 0.0 0.0 0.942595 0.306253 0.133 0.951048 0.309 0.0 0.801813 0.582537 0.133 0.809015 0.587756 0.0 0.582537 0.801813 0.133 0.587756 0.809015 0.0 0.306253 0.942595 0.133 0.309 0.951048 0.0 0.0 0.991089 0.133 0.0 1.0 0.0 -0.306253 0.942595 0.133 -0.587756 0.809015 0.0 -0.582537 0.801813 0.133 -0.809015 0.587756 0.0 -0.801813 0.582537 0.133 -0.951048 0.309 0.0 -0.942595 0.306253 0.133 -0.991089 0.0 0.133 -0.583605 -0.803247 0.118961 0.944273 -0.306803 0.118961 0.944273 0.306803 0.118961 -0.944273 0.306803 0.118961 0.583605 0.803247 -0.118961 0.801813 0.582537 -0.133 0.803247 0.583605 -0.118961 -0.944273 -0.306803 -0.118961 -0.991089 0.0 -0.133 -0.992889 0.0 -0.118961 0.942595 -0.306253 -0.133 0.801813 -0.582537 -0.133 -0.587756 0.808985 0.005005 -0.306803 0.944273 -0.118961 -0.309 0.951018 0.005005 0.0 -0.999969 0.005005 -0.306803 -0.944273 -0.118961 -0.309 -0.951018 0.005005 0.720237 0.52327 -0.455397 0.573931 0.789972 -0.215613 0.789972 0.573931 -0.215613 -0.846706 -0.275094 -0.455397 -0.97647 0.0 -0.215613 -0.890255 0.0 -0.455397 0.796472 -0.258766 -0.546464 0.761254 -0.553087 -0.33845 0.677511 -0.492233 -0.546464 -0.553087 0.761254 -0.33845 -0.306345 0.942839 -0.130985 -0.29075 0.894894 -0.33845 0.0 -0.940947 -0.33845 -0.306345 -0.942839 -0.130985 -0.29075 -0.894894 -0.33845 0.547563 0.753655 -0.363475 0.677511 0.492233 -0.546464 0.753655 0.547563 -0.363475 -0.931578 0.0 -0.363475 -0.796472 -0.258766 -0.546464 -0.837458 0.0 -0.546464 0.928678 -0.301737 -0.215613 0.808985 -0.587756 0.005005 0.789972 -0.573931 -0.215613 0.802026 0.58272 -0.130985 0.846706 0.275094 -0.455397 0.942839 0.306345 -0.130985 -0.942839 -0.306345 -0.130985 -0.991363 0.0 -0.130985 -0.809015 -0.587756 0.0 -0.951048 -0.309 0.0 -0.951048 -0.309 0.0 0.951048 0.309 0.0 1.0 0.0 0.0 1.0 0.0 0.0 0.0 0.0 -1.0 0.0 0.0 -1.0 0.0 0.0 -1.0 0.942595 0.306253 -0.133 0.944273 0.306803 -0.118961 -0.991089 0.0 -0.133 -0.942595 0.306253 -0.133 0.582537 -0.801813 -0.133 0.0 0.992889 -0.118961 0.0 0.999969 0.005005 -0.583605 -0.803247 -0.118961 -0.587756 -0.808985 0.005005 0.928678 0.301737 -0.215613 -0.837458 0.0 -0.546464 -0.894894 0.29075 -0.33845 -0.796472 0.258766 -0.546464 0.492233 -0.677511 -0.546464 0.553087 -0.761254 -0.33845 0.0 0.991363 -0.130985 0.0 0.940947 -0.33845 -0.58272 -0.802026 -0.130985 -0.553087 -0.761254 -0.33845 0.796472 0.258766 -0.546464 0.885983 0.287851 -0.363475 -0.97647 0.0 -0.215613 -0.951018 0.309 0.005005 -0.928678 0.301737 -0.215613 0.587756 -0.808985 0.005005 0.573931 -0.789972 -0.215613 0.890255 0.0 -0.455397 0.991363 0.0 -0.130985 0.0 0.0 -1.0 0.0 0.0 -1.0 0.0 0.0 -1.0 -1.0 0.0 0.0 -1.0 0.0 0.0 0.0 0.0 -0.999969 0.0 0.0 -1.0 0.0 0.0 -1.0 0.0 0.0 -0.999969 0.0 0.0 -1.0 0.992889 0.0 -0.118961 0.991089 0.0 -0.133 -0.801813 0.582537 -0.133 0.306253 -0.942595 -0.133 0.306803 0.944273 -0.118961 0.309 0.951018 0.005005 -0.803247 -0.583605 -0.118961 -0.808985 -0.587756 0.005005 0.97647 0.0 -0.215613 -0.761254 0.553087 -0.33845 -0.677511 0.492233 -0.546464 0.29075 -0.894894 -0.33845 0.258766 -0.796472 -0.546464 0.306345 0.942839 -0.130985 0.29075 0.894894 -0.33845 -0.802026 -0.58272 -0.130985 -0.761254 -0.553087 -0.33845 0.837458 0.0 -0.546464 0.931578 0.0 -0.363475 -0.808985 0.587756 0.005005 -0.789972 0.573931 -0.215613 0.301737 -0.928678 -0.215613 0.309 -0.951018 0.005005 0.0 -0.97647 -0.215613 -0.301737 -0.928678 -0.215613 -0.573931 -0.789972 -0.215613 -0.789972 -0.573931 -0.215613 -0.928678 -0.301737 -0.215613 -0.951018 -0.309 0.005005 0.306803 -0.944273 -0.118961 0.0 -0.991089 -0.133 0.0 -0.992889 -0.118961 0.306253 0.942595 -0.133 0.582537 0.801813 -0.133 -0.801813 -0.582537 -0.133 -0.942595 -0.306253 -0.133 0.999969 0.0 0.005005 0.944273 -0.306803 -0.118961 0.951018 -0.309 0.005005 -0.720237 0.52327 -0.455397 -0.573931 0.789972 -0.215613 -0.52327 0.720237 -0.455397 0.275094 -0.846706 -0.455397 0.0 -0.890255 -0.455397 0.258766 0.796472 -0.546464 0.553087 0.761254 -0.33845 0.492233 0.677511 -0.546464 -0.677511 -0.492233 -0.546464 -0.894894 -0.29075 -0.33845 -0.796472 -0.258766 -0.546464 0.894894 -0.29075 -0.33845 0.942839 -0.306345 -0.130985 -0.547563 0.753655 -0.363475 -0.677511 0.492233 -0.546464 -0.492233 0.677511 -0.546464 0.0 -0.931578 -0.363475 0.258766 -0.796472 -0.546464 0.0 -0.837458 -0.546464 0.587756 0.808985 0.005005 -0.58272 0.802026 -0.130985 -0.275094 0.846706 -0.455397 0.306345 -0.942839 -0.130985 0.0 -0.991363 -0.130985 0.587756 -0.809015 0.0 0.309 -0.951048 0.0 0.309 -0.951048 0.0 -0.309 0.951048 0.0 0.0 1.0 0.0 0.0 1.0 0.0 0.0 0.0 -1.0 0.0 0.0 -1.0 0.0 0.0 -1.0 0.0 0.0 -1.0 0.0 0.0 -1.0 0.0 0.0 -0.999969 0.803247 -0.583605 -0.118961 -0.582537 0.801813 -0.133 -0.309 0.951048 0.0 -0.306253 0.942595 -0.133 -0.306253 -0.942595 -0.133 0.0 -1.0 0.0 -0.309 -0.951048 0.0 0.808985 0.587756 0.005005 -0.999969 0.0 0.005005 0.720237 -0.52327 -0.455397 -0.492233 0.677511 -0.546464 -0.258766 0.796472 -0.546464 0.0 -0.837458 -0.546464 -0.258766 -0.796472 -0.546464 0.761254 0.553087 -0.33845 0.58272 0.802026 -0.130985 -0.940947 0.0 -0.33845 0.885983 -0.287851 -0.363475 0.677511 -0.492233 -0.546464 0.753655 -0.547563 -0.363475 -0.301737 0.928678 -0.215613 -0.991363 0.0 -0.130985 -0.846706 0.275094 -0.455397 -0.942839 0.306345 -0.130985 0.802026 -0.58272 -0.130985 1.0 0.0 0.0 0.951048 -0.309 0.0 0.951048 -0.309 0.0 -0.951048 0.309 0.0 -0.809015 0.587756 0.0 -0.809015 0.587756 0.0 0.0 0.0 -1.0 0.0 0.0 -1.0 0.0 0.0 -1.0 0.0 0.0 -1.0 0.0 0.0 -1.0 0.0 0.0 -1.0 -0.803247 0.583605 -0.118961 -0.583605 0.803247 -0.118961 0.52327 0.720237 -0.455397 0.301737 0.928678 -0.215613 0.837458 0.0 -0.546464 -0.802026 0.58272 -0.130985 0.258766 0.796472 -0.546464 0.492233 0.677511 -0.546464 -0.753655 -0.547563 -0.363475 -0.885983 -0.287851 -0.363475 -0.587756 -0.809015 0.0 -0.809015 -0.587756 0.0 0.809015 0.587756 0.0 0.951048 0.309 0.0 0.0 0.0 -1.0 0.0 0.0 -1.0 0.583605 -0.803247 -0.118961 0.0 0.991089 -0.133 -0.587756 -0.809015 0.0 0.951018 0.309 0.005005 0.52327 -0.720237 -0.455397 0.0 0.837458 -0.546464 -0.492233 -0.677511 -0.546464 0.894894 0.29075 -0.33845 0.940947 0.0 -0.33845 -0.753655 0.547563 -0.363475 -0.796472 0.258766 -0.546464 0.547563 -0.753655 -0.363475 0.287851 -0.885983 -0.363475 0.0 0.97647 -0.215613 0.809015 -0.587756 0.0 0.587756 -0.809015 0.0 -0.587756 0.809015 0.0 -0.309 0.951048 0.0 0.0 0.0 -1.0 0.0 0.0 -1.0 0.0 0.0 -1.0 0.0 0.0 -1.0 -0.582537 -0.801813 -0.133 -0.931578 0.0 -0.363475 -0.885983 0.287851 -0.363475 0.492233 -0.677511 -0.546464 0.58272 -0.802026 -0.130985 0.809015 -0.587756 0.0 -0.587756 0.809015 0.0 0.0 0.0 -1.0 0.0 0.0 -1.0 -0.944273 0.306803 -0.118961 -0.275094 -0.846706 -0.455397 0.677511 0.492233 -0.546464 -0.258766 0.796472 -0.546464 -0.287851 0.885983 -0.363475 -0.258766 -0.796472 -0.546464 -0.287851 -0.885983 -0.363475 0.0 0.890255 -0.455397 0.0 -1.0 0.0 0.0 -1.0 0.0 0.309 0.951048 0.0 0.309 0.951048 0.0 0.0 0.0 -1.0 0.0 0.0 -0.999969 0.0 0.0 -1.0 0.0 0.0 -1.0 -0.992889 0.0 -0.118961 0.846706 -0.275094 -0.455397 0.796472 -0.258766 -0.546464 0.0 0.0 -1.0 0.0 0.0 -1.0 -0.951048 0.309 0.0 0.0 0.0 -1.0 0.0 0.0 -0.999969 0.275094 0.846706 -0.455397 -0.720237 -0.52327 -0.455397 0.0 0.931578 -0.363475 0.287851 0.885983 -0.363475 -0.492233 -0.677511 -0.546464 -0.677511 -0.492233 -0.546464 -0.309 -0.951048 0.0 -0.587756 -0.809015 0.0 0.587756 0.809015 0.0 0.809015 0.587756 0.0 0.0 0.0 -0.999969 0.0 0.0 -1.0 0.0 0.0 -1.0 0.0 0.0 -1.0 0.0 0.0 -0.999969 -0.52327 -0.720237 -0.455397 0.796472 0.258766 -0.546464 -0.940947 0.0 -0.33845 0.0 0.837458 -0.546464 -0.547563 -0.753655 -0.363475 -0.309 -0.951048 0.0 0.587756 0.809015 0.0 0.0 0.0 -1.0 0.0 0.0 -1.0 0.0 0.0 1.0 0.0 0.0 1.0 0.0 0.0 1.0 0.0 0.0 1.0 0.0 0.0 1.0 1.0 0.0 0.0 0.0 0.0 1.0 0.0 0.0 1.0 0.0 0.0 1.0 0.0 0.0 1.0 0.0 0.0 1.0 0.0 0.0 1.0 0.0 0.0 1.0 0.0 0.0 1.0 0.0 0.0 1.0 0.0 0.0 1.0 0.0 0.0 1.0 0.0 0.0 1.0 0.0 0.0 1.0 0.0 0.0 1.0 -0.677511 -0.492233 0.546464 0.837458 0.0 0.546464 0.492233 0.677511 0.546464 -0.677511 0.492233 0.546464 -1.0 0.0 0.0 -0.999969 0.0 0.005005 0.0 0.0 -1.0 0.0 0.0 -1.0 0.0 0.0 -1.0 0.0 0.0 -1.0 0.0 0.0 -1.0 0.0 0.0 -1.0 0.0 0.0 -1.0 0.0 0.0 -1.0 0.0 0.0 -0.999969 -0.890255 0.0 -0.455397 1.0 0.0 0.0 0.0 0.0 -1.0 0.0 0.0 -1.0 0.0 0.0 -1.0 0.0 0.0 -1.0 0.0 0.0 -1.0 0.0 0.0 -1.0 0.0 0.0 -1.0</float_array>
				<technique_common>
				<accessor source="#id-mesh-8-normals-array" count="646" stride="3">
					<param name="X" type="float"/>
					<param name="Y" type="float"/>
					<param name="Z" type="float"/>
				</accessor>
				</technique_common>
			</source>
			<source id="id-mesh-8-texcoord-0">
				<float_array id="id-mesh-8-texcoord-0-array" count="1292"> -0.5 1.0 -0.4 1.036478 -0.5 1.036478 -0.4 1.0 -0.3 1.036478 -0.3 1.0 -0.2 1.036478 -0.2 1.0 -0.1 1.036478 0.0 1.0 0.0 1.036478 0.1 1.0 0.1 1.036478 0.2 1.036478 0.3 1.0 0.3 1.036478 0.4 1.036478 0.4 1.0 0.5 1.036478 0.5 1.0 0.6 1.036478 0.7 1.0 0.7 1.036478 0.8 1.0 0.8 1.036478 0.9 1.0 0.9 1.036478 1.0 1.036478 1.0 1.0 1.1 1.036478 1.2 1.0 1.2 1.036478 1.3 1.036478 1.3 1.0 1.4 1.036478 1.4 1.0 1.5 1.036478 -0.5 1.036478 -0.4 0.956574 -0.5 0.956574 -0.4 1.036478 -0.3 0.956574 -0.3 1.036478 -0.2 0.956574 -0.2 1.036478 -0.1 0.956574 -0.1 1.036478 0.0 0.956574 0.0 1.036478 0.1 0.956574 0.1 1.036478 0.2 0.956574 0.2 1.036478 0.3 0.956574 0.3 1.036478 0.4 0.956574 0.4 1.036478 0.499868 0.955989 0.5 1.036478 0.6 0.956574 0.6 1.036478 0.700256 0.956375 0.7 1.036478 0.8 0.956574 0.8 1.036478 0.9 0.956574 0.9 1.036478 1.0 0.956574 1.0 1.036478 1.1 0.956574 1.1 1.036478 1.2 0.956574 1.2 1.036478 1.3 0.956574 1.3 1.036478 1.4 0.956574 1.4 1.036478 1.5 0.956574 0.098913 0.386803 0.381699 0.278796 0.664484 0.386803 0.556469 0.308648 0.381699 0.278795 0.206928 0.308648 -0.5 0.818909 -0.4 0.903944 -0.5 0.903944 -0.3 0.818909 -0.3 0.903944 -0.2 0.903944 -0.2 0.818909 -0.1 0.903944 -0.1 0.818909 0.0 0.903944 0.0 0.818909 0.1 0.903944 0.1 0.818909 0.2 0.903944 0.2 0.818909 0.3 0.903944 0.3 0.818909 0.4 0.903944 0.4 0.818909 0.5 0.903944 0.5 0.818909 0.6 0.903944 0.6 0.818909 0.7 0.903944 0.7 0.818909 0.8 0.903944 0.8 0.818909 0.9 0.903944 0.9 0.818909 1.0 0.903944 1.0 0.818909 1.1 0.903944 1.1 0.818909 1.2 0.903944 1.2 0.818909 1.3 0.903944 1.3 0.818909 1.4 0.903944 1.5 0.818909 1.5 0.903944 -0.5 0.762905 -0.4 0.793056 -0.5 0.793056 -0.3 0.762905 -0.3 0.793056 -0.2 0.793056 -0.2 0.762905 -0.1 0.793056 -0.1 0.762905 0.0 0.793056 0.0 0.762905 0.1 0.793056 0.1 0.762905 0.2 0.793056 0.2 0.762905 0.3 0.793056 0.3 0.762905 0.4 0.793056 0.5 0.762905 0.5 0.793056 0.6 0.793056 0.7 0.762905 0.7 0.793056 0.8 0.762905 0.8 0.793056 0.9 0.793056 0.9 0.762905 1.0 0.793056 1.0 0.762905 1.1 0.793056 1.1 0.762905 1.2 0.793056 1.2 0.762905 1.3 0.793056 1.3 0.762905 1.4 0.793056 1.5 0.762905 1.5 0.793056 -0.5 1.0 -0.4 0.956574 -0.4 1.0 -0.3 1.0 -0.2 0.956574 -0.2 1.0 -0.1 0.956574 -0.1 1.0 0.0 1.0 0.0 0.956574 0.1 1.0 0.1 0.956574 0.2 1.0 0.2 0.956574 0.3 1.0 0.3 0.956574 0.4 1.0 0.4 0.956574 0.5 1.0 0.6 0.956574 0.6 1.0 0.7 1.0 0.7 0.956574 0.8 1.0 0.9 0.956574 0.9 1.0 1.0 1.0 1.0 0.956574 1.1 1.0 1.1 0.956574 1.2 1.0 1.2 0.956574 1.3 1.0 1.4 0.956574 1.4 1.0 1.5 1.0 -0.4 0.933656 -0.5 0.933656 -0.3 0.933656 -0.2 0.933656 -0.1 0.933656 0.0 0.933656 0.1 0.933656 0.2 0.933656 0.3 0.933656 0.4 0.933656 0.5 0.933656 0.6 0.933656 0.7 0.933656 0.8 0.933656 0.9 0.933656 1.0 0.933656 1.1 0.933656 1.2 0.933656 1.3 0.933656 1.4 0.933656 1.5 0.933656 -0.4 0.956574 -0.5 0.956574 -0.3 0.956574 -0.2 0.956574 -0.1 0.956574 0.0 0.956574 0.1 0.956574 0.2 0.956574 0.3 0.956574 0.4 0.956574 0.5 0.956574 0.6 0.956574 0.7 0.956574 0.8 0.956574 0.9 0.956574 1.0 0.956574 1.1 0.956574 1.2 0.956574 1.3 0.956574 1.4 0.956574 1.5 0.956574 -0.4 0.818909 1.4 0.818909 -0.5 0.645789 -0.4 0.762905 -0.4 0.645789 -0.3 0.645789 -0.1 0.645789 0.0 0.645789 0.1 0.645789 0.2 0.645789 0.3 0.645789 0.4 0.762905 0.5 0.645789 0.6 0.762905 0.7 0.645789 0.8 0.645789 0.9 0.645789 1.0 0.645789 1.1 0.645789 1.2 0.645789 1.3 0.645789 1.4 0.762905 1.5 0.645789 -0.5 0.5 -0.4 0.534651 -0.5 0.534651 -0.4 0.5 -0.3 0.534651 -0.3 0.5 -0.2 0.534651 -0.1 0.5 -0.1 0.534651 0.0 0.534651 0.1 0.5 0.1 0.534651 0.2 0.5 0.2 0.534651 0.3 0.534651 0.3 0.5 0.4 0.534651 0.4 0.5 0.5 0.534651 0.5 0.5 0.6 0.534651 0.6 0.5 0.7 0.534651 0.7 0.5 0.8 0.534651 0.8 0.5 0.9 0.534651 0.9 0.5 1.0 0.534651 1.0 0.5 1.1 0.534651 1.2 0.5 1.2 0.534651 1.3 0.5 1.3 0.534651 1.4 0.5 1.4 0.534651 1.5 0.534651 -0.2 0.645789 0.4 0.645789 0.6 0.645789 1.4 0.645789 0.8 0.354211 0.7 0.465349 0.7 0.354211 -0.4 0.354211 -0.5 0.465349 -0.5 0.354211 0.4 0.465349 0.3 0.465349 1.2 0.237095 1.1 0.354211 1.1 0.237095 0.0 0.237095 -0.1 0.354211 -0.1 0.237095 0.7 0.181091 0.8 0.206944 0.7 0.206944 -0.4 0.181091 -0.5 0.206944 -0.5 0.181091 0.4 0.043426 0.3 0.066344 0.3 0.043426 1.2 0.066344 1.1 0.096056 1.1 0.066344 0.0 0.066344 -0.1 0.096056 -0.1 0.066344 0.8 0.0 0.7 0.043426 0.7 0.0 -0.5 0.0 -0.4 0.043426 -0.5 0.043426 0.4 0.206944 0.3 0.237095 0.3 0.206944 0.7 0.096056 0.6 0.181091 0.6 0.096056 -0.4 0.096056 -0.5 0.096056 0.700256 0.043625 0.6 -0.036478 0.6 0.043426 -0.4 0.043426 -0.5 -0.036478 -0.5 0.043426 0.4 -0.036478 0.5 0.0 0.4 0.0 0.6 0.465349 0.6 0.354211 1.5 0.465349 1.4 0.465349 0.2 0.465349 1.0 0.354211 1.0 0.237095 -0.2 0.354211 -0.2 0.237095 0.6 0.206944 1.5 0.043426 1.4 0.066344 1.4 0.043426 0.2 0.043426 0.2 0.066344 1.0 0.096056 1.0 0.066344 -0.2 0.096056 -0.2 0.066344 0.6 0.043426 0.6 0.0 1.5 0.206944 1.4 0.237095 1.4 0.206944 0.2 0.237095 0.2 0.206944 0.5 0.181091 0.5 0.096056 0.267488 0.635441 0.599922 0.578658 0.805378 0.727317 0.5 -0.036478 0.499868 0.044011 1.4 -0.036478 1.5 0.0 1.4 0.0 0.3 -0.036478 0.3 0.0 0.5 0.354211 0.5 0.465349 1.3 0.465349 0.1 0.465349 0.9 0.354211 0.9 0.237095 -0.3 0.354211 -0.3 0.237095 0.5 0.206944 1.3 0.066344 1.3 0.043426 0.1 0.066344 0.1 0.043426 0.9 0.096056 0.9 0.066344 -0.3 0.096056 -0.3 0.066344 0.5 0.043426 0.5 0.0 1.3 0.237095 1.3 0.206944 0.1 0.206944 0.1 0.237095 0.0 0.206944 -0.1 0.206944 -0.2 0.206944 -0.3 0.206944 -0.4 0.206944 -0.4 0.237095 0.1 0.354211 0.0 0.465349 0.0 0.354211 0.9 0.465349 0.8 0.465349 -0.3 0.465349 -0.4 0.465349 0.5 0.237095 0.4 0.354211 0.4 0.237095 1.3 0.181091 1.2 0.206944 1.2 0.181091 0.1 0.181091 0.0 0.181091 0.9 0.043426 0.8 0.066344 0.8 0.043426 -0.3 0.043426 -0.4 0.066344 -0.4 0.043426 0.4 0.066344 0.4 0.096056 1.2 0.0 1.3 0.043426 1.2 0.043426 0.0 0.0 0.1 0.043426 0.0 0.043426 0.8 0.237095 1.2 0.096056 1.1 0.181091 0.1 0.096056 0.0 0.096056 1.2 0.043426 1.1 -0.036478 1.1 0.043426 0.1 0.043426 0.0 -0.036478 0.0 0.043426 1.0 -0.036478 0.9 0.0 0.9 -0.036478 -0.1 -0.036478 -0.2 0.0 -0.2 -0.036478 0.3 0.354211 1.2 0.465349 1.1 0.5 1.1 0.465349 -0.1 0.465349 0.0 0.5 -0.1 0.5 0.7 0.237095 -0.5 0.237095 0.3 0.181091 1.2 0.043426 1.1 0.043426 0.0 0.043426 -0.1 0.043426 0.7 0.066344 0.8 0.096056 -0.5 0.066344 0.4 0.0 0.3 0.043426 0.3 0.0 1.1 0.206944 1.5 0.096056 1.4 0.181091 1.4 0.096056 0.3 0.096056 1.5 0.043426 1.4 -0.036478 1.4 0.043426 0.4 0.043426 0.3 -0.036478 0.3 0.043426 1.3 -0.036478 1.2 0.0 1.2 -0.036478 0.1 -0.036478 0.2 0.0 0.1 0.0 1.3 0.354211 1.2 0.354211 0.8 0.181091 0.9 0.206944 0.5 0.043426 1.3 0.096056 0.9 0.043426 0.8 0.043426 -0.3 0.0 -0.4 0.0 0.8 0.043426 0.7 -0.036478 -0.3 0.043426 -0.4 -0.036478 0.6 -0.036478 0.5 -0.036478 0.2 0.354211 1.0 0.465349 -0.2 0.5 0.6 0.237095 0.2 0.181091 1.0 0.043426 -0.2 0.043426 0.6 0.066344 0.5 0.066344 1.3 0.0 1.4 0.043426 0.2 0.0 0.1 0.0 1.0 0.206944 1.3 0.043426 1.2 -0.036478 0.2 0.043426 0.1 -0.036478 1.1 -0.036478 1.0 0.0 0.0 -0.036478 -0.1 0.0 -0.2 0.465349 1.5 0.0 1.4 0.0 0.2 0.043426 0.2 0.096056 1.3 -0.036478 0.2 -0.036478 1.1 0.0 0.0 0.0 1.4 0.354211 -0.1 0.181091 0.7 0.043426 1.1 0.043426 1.1 0.0 -0.1 0.043426 -0.1 0.0 1.0 0.181091 1.0 -0.036478 1.0 0.043426 -0.1 -0.036478 -0.1 0.043426 0.8 0.0 0.8 -0.036478 -0.3 0.0 -0.3 -0.036478 1.5 0.354211 0.4 0.181091 0.4 0.043426 0.416157 0.578658 0.267488 0.635441 0.4 -0.036478 1.3 0.0 0.2 -0.036478 0.9 0.181091 -0.3 0.181091 1.0 0.0 0.9 0.0 -0.2 0.043426 -0.3 0.043426 0.9 0.043426 0.8 -0.036478 -0.2 0.043426 -0.3 -0.036478 0.7 -0.036478 0.6 0.0 -0.4 -0.036478 -0.5 0.0 -0.5 -0.036478 -0.2 0.181091 0.6 0.043426 1.5 0.066344 1.0 0.043426 -0.2 0.0 0.9 -0.036478 -0.2 -0.036478 0.7 0.0 -0.4 0.0 -0.1 1.0 0.2 1.0 0.6 1.0 1.1 1.0 1.5 1.0 1.5 1.036478 0.679037 0.435105 0.08436 0.435105 0.141147 0.343229 0.206928 0.308648 0.289816 0.286446 0.473581 0.286446 0.55647 0.308648 0.62225 0.343229 0.141147 0.343229 0.098913 0.386803 0.664484 0.386803 0.62225 0.343229 0.473581 0.286446 0.289816 0.286446 -0.3 0.956574 0.5 0.956574 0.8 0.956574 1.3 0.956574 1.5 0.5 1.5 0.237095 0.210701 0.727317 0.225254 0.679015 0.333268 0.60086 0.416157 0.578658 0.50804 0.571007 0.68281 0.60086 0.748591 0.635441 0.790825 0.679015 1.5 -0.036478 1.5 0.181091 1.5 -0.036478 0.225254 0.679015 0.790825 0.679015 0.748591 0.635441 0.682811 0.60086 0.599922 0.578658 0.50804 0.571008 0.333269 0.60086</float_array>
				<technique_common>
				<accessor source="#id-mesh-8-texcoord-0-array" count="646" stride="2">
					<param name="S" type="float"/>
					<param name="T" type="float"/>
				</accessor>
				</technique_common>
			</source>
			<vertices id="id-mesh-8-vertices">
				<input semantic="POSITION" source="#id-mesh-8-positions"/>
			</vertices>
			<triangles count="916" material="id-trimat-9">
				<input semantic="VERTEX" source="#id-mesh-8-vertices" offset="0"/>
				<input semantic="NORMAL" source="#id-mesh-8-normals" offset="0"/>
				<input semantic="TEXCOORD" source="#id-mesh-8-texcoord-0" offset="0" set="0"/>
				<p> 0 1 2 3 4 1 5 6 4 7 8 6 8 9 10 10 11 12 11 13 12 13 14 15 14 16 15 17 18 16 19 20 18 20 21 22 22 23 24 24 25 26 25 27 26 28 29 27 29 30 31 30 32 31 33 34 32 35 36 34 37 38 39 40 41 38 42 43 41 44 45 43 46 47 45 48 49 47 50 51 49 52 53 51 54 55 53 56 57 55 58 59 57 60 61 59 62 63 61 64 65 63 66 67 65 68 69 67 70 71 69 72 73 71 74 75 73 76 77 75 78 79 80 81 82 83 84 85 86 85 87 88 87 89 88 90 91 89 92 93 91 94 95 93 96 97 95 98 99 97 100 101 99 102 103 101 104 105 103 106 107 105 108 109 107 110 111 109 112 113 111 114 115 113 116 117 115 118 119 117 120 121 119 121 122 123 124 125 126 125 127 128 127 129 128 130 131 129 132 133 131 134 135 133 136 137 135 138 139 137 140 141 139 141 142 143 142 144 143 144 145 146 146 147 148 147 149 148 150 151 149 152 153 151 154 155 153 156 157 155 158 159 157 159 160 161 162 163 164 163 165 164 165 166 167 167 168 169 168 170 169 171 172 170 173 174 172 175 176 174 177 178 176 179 180 178 180 181 182 181 183 182 184 185 183 185 186 187 186 188 187 189 190 188 191 192 190 193 194 192 194 195 196 195 197 196 86 198 199 85 200 198 88 201 200 89 202 201 91 203 202 93 204 203 95 205 204 97 206 205 99 207 206 207 103 208 103 209 208 209 107 210 107 211 210 211 111 212 212 113 213 113 214 213 214 117 215 215 119 216 216 121 217 121 218 217 199 219 220 198 221 219 200 222 221 201 223 222 202 224 223 203 225 224 204 226 225 205 227 226 206 228 227 207 229 228 229 209 230 209 231 230 231 211 232 211 233 232 212 234 233 213 235 234 214 236 235 215 237 236 216 238 237 217 239 238 126 240 84 240 128 87 87 129 90 90 131 92 92 133 94 133 96 94 96 137 98 98 139 100 139 102 100 141 104 102 143 106 104 144 108 106 146 110 108 148 112 110 149 114 112 151 116 114 153 118 116 155 120 118 157 241 120 159 122 241 242 243 124 244 127 243 245 130 127 130 246 132 246 134 132 247 136 134 248 138 136 249 140 138 250 251 140 251 252 142 252 253 142 253 254 145 145 255 147 255 150 147 256 152 150 257 154 152 258 156 154 259 158 156 260 261 158 261 262 160 263 264 265 266 267 264 268 269 267 269 270 271 270 272 271 272 273 274 274 275 276 275 277 276 278 279 277 280 281 279 282 283 281 284 285 283 286 287 285 288 289 287 290 291 289 292 293 291 293 294 295 295 296 297 297 298 299 298 300 299 265 244 242 264 245 244 245 269 301 269 246 301 271 247 246 272 248 247 274 249 248 276 250 249 250 279 302 279 252 302 281 303 252 283 254 303 285 255 254 255 289 256 289 257 256 291 258 257 293 259 258 259 297 260 297 304 260 299 262 304 305 306 307 308 309 310 311 278 312 313 314 315 316 317 318 319 320 321 322 323 324 325 326 327 328 329 330 331 332 333 334 335 336 337 338 339 340 341 342 343 344 345 346 324 347 348 349 350 351 352 353 354 355 356 307 357 358 359 298 360 312 275 361 315 362 363 318 364 365 319 366 344 367 368 369 370 326 371 330 372 373 333 374 375 336 376 377 378 379 380 342 381 382 345 383 384 385 386 387 350 388 389 390 391 392 393 356 394 395 357 396 360 296 397 361 273 398 363 399 400 365 401 402 383 366 403 369 404 405 370 406 407 373 408 409 375 410 411 377 412 413 380 414 415 416 381 417 416 316 418 418 318 419 419 365 420 420 402 421 422 402 423 424 425 426 427 288 428 429 266 430 431 432 433 434 435 436 437 418 438 439 440 441 442 443 444 445 384 446 447 448 449 450 451 452 320 400 453 454 455 329 456 438 457 458 459 460 461 462 463 464 465 466 467 468 469 432 312 470 471 472 473 474 475 476 453 307 477 423 310 478 479 340 342 480 330 481 482 333 483 484 485 343 443 347 486 487 488 489 435 315 490 491 492 493 446 479 494 495 496 497 498 499 500 501 502 503 504 505 506 305 427 428 401 430 308 396 280 311 313 507 508 417 426 316 509 510 320 322 421 422 511 445 325 328 512 454 406 457 331 334 513 514 515 338 516 340 431 433 485 319 343 410 322 346 517 518 348 519 520 351 521 355 522 523 398 424 524 290 427 429 525 268 526 395 431 492 415 434 527 416 437 528 409 439 529 411 442 530 384 531 532 533 448 534 451 535 536 400 510 512 436 454 456 527 437 537 538 458 539 540 461 541 542 464 543 544 467 470 361 523 473 292 524 545 476 525 526 307 358 492 378 380 479 382 527 481 373 528 529 333 375 484 345 530 546 533 547 489 548 534 490 363 536 493 434 512 494 527 549 497 550 537 500 551 539 541 502 552 543 506 553 554 397 507 426 474 317 428 286 306 430 263 309 341 432 470 436 490 455 555 418 419 441 484 556 444 486 339 445 494 326 447 557 558 450 559 560 321 453 477 329 561 372 332 438 555 460 562 563 463 564 565 466 566 567 469 568 569 570 360 554 395 311 432 471 296 294 425 273 475 400 305 453 423 401 308 383 340 571 405 328 480 482 406 331 409 485 440 411 346 443 487 412 572 415 313 435 323 423 478 446 383 571 573 574 387 389 575 498 390 576 501 577 394 505 508 473 314 401 545 429 357 282 396 414 554 507 381 424 417 561 510 578 579 420 421 511 530 531 404 493 512 371 456 406 580 513 581 515 582 583 403 526 431 408 509 485 374 579 410 584 585 517 586 587 519 588 589 521 590 591 592 507 471 508 362 427 399 317 545 364 306 284 357 379 570 554 341 523 381 455 536 561 593 419 420 556 530 594 595 493 368 326 549 371 580 557 596 597 559 582 366 477 526 372 578 408 332 593 374 563 598 584 565 599 586 588 566 600 590 568 601 362 473 524 0 3 1 3 5 4 5 7 6 7 602 8 8 602 9 10 9 11 11 603 13 13 603 14 14 17 16 17 19 18 19 604 20 20 604 21 22 21 23 24 23 25 25 28 27 28 605 29 29 605 30 30 33 32 33 35 34 35 606 36 37 40 38 40 42 41 42 44 43 44 46 45 46 48 47 48 50 49 50 52 51 52 54 53 54 56 55 56 58 57 58 60 59 60 62 61 62 64 63 64 66 65 66 68 67 68 70 69 70 72 71 72 74 73 74 76 75 76 607 77 608 609 78 78 610 611 611 612 78 612 79 78 79 613 614 614 615 80 80 608 78 79 614 80 616 617 609 609 608 618 618 619 81 81 620 82 82 621 83 83 616 81 616 609 81 609 618 81 84 240 85 85 240 87 87 90 89 90 92 91 92 94 93 94 96 95 96 98 97 98 100 99 100 102 101 102 104 103 104 106 105 106 108 107 108 110 109 110 112 111 112 114 113 114 116 115 116 118 117 118 120 119 120 241 121 121 241 122 124 243 125 125 243 127 127 130 129 130 132 131 132 134 133 134 136 135 136 138 137 138 140 139 140 251 141 141 251 142 142 253 144 144 253 145 146 145 147 147 150 149 150 152 151 152 154 153 154 156 155 156 158 157 158 261 159 159 261 160 162 220 163 163 622 165 165 622 166 167 166 168 168 171 170 171 173 172 173 175 174 175 177 176 177 179 178 179 623 180 180 623 181 181 184 183 184 624 185 185 624 186 186 189 188 189 191 190 191 193 192 193 625 194 194 625 195 195 239 197 86 85 198 85 88 200 88 89 201 89 91 202 91 93 203 93 95 204 95 97 205 97 99 206 99 101 207 207 101 103 103 105 209 209 105 107 107 109 211 211 109 111 212 111 113 113 115 214 214 115 117 215 117 119 216 119 121 121 123 218 199 198 219 198 200 221 200 201 222 201 202 223 202 203 224 203 204 225 204 205 226 205 206 227 206 207 228 207 208 229 229 208 209 209 210 231 231 210 211 211 212 233 212 213 234 213 214 235 214 215 236 215 216 237 216 217 238 217 218 239 126 125 240 240 125 128 87 128 129 90 129 131 92 131 133 133 135 96 96 135 137 98 137 139 139 141 102 141 143 104 143 144 106 144 146 108 146 148 110 148 149 112 149 151 114 151 153 116 153 155 118 155 157 120 157 159 241 159 161 122 242 244 243 244 245 127 245 301 130 130 301 246 246 247 134 247 248 136 248 249 138 249 250 140 250 302 251 251 302 252 252 303 253 253 303 254 145 254 255 255 256 150 256 257 152 257 258 154 258 259 156 259 260 158 260 304 261 261 304 262 263 266 264 266 268 267 268 525 269 269 525 270 270 475 272 272 475 273 274 273 275 275 278 277 278 280 279 280 282 281 282 284 283 284 286 285 286 288 287 288 290 289 290 292 291 292 472 293 293 472 294 295 294 296 297 296 298 298 626 300 265 264 244 264 267 245 245 267 269 269 271 246 271 272 247 272 274 248 274 276 249 276 277 250 250 277 279 279 281 252 281 283 303 283 285 254 285 287 255 255 287 289 289 291 257 291 293 258 293 295 259 259 295 297 297 299 304 299 300 262 305 428 306 308 430 309 311 280 278 313 508 314 316 426 317 319 509 320 322 422 323 325 445 326 328 454 329 331 457 332 334 514 335 337 516 338 340 433 341 343 319 344 346 322 324 348 518 349 351 520 352 354 522 355 307 306 357 359 626 298 312 278 275 315 314 362 318 317 364 319 321 366 367 595 368 370 327 326 330 329 372 333 332 374 336 335 376 378 627 379 342 341 381 345 344 383 628 629 385 385 630 631 631 632 386 386 633 387 633 634 387 634 635 387 387 628 385 385 631 386 350 349 388 390 636 391 393 354 356 395 358 357 360 298 296 361 275 273 363 362 399 365 364 401 383 344 366 369 368 404 370 371 406 373 372 408 375 374 410 377 376 412 380 379 414 416 382 381 416 417 316 418 316 318 419 318 365 420 365 402 422 421 402 424 398 425 427 290 288 429 268 266 431 395 432 434 415 435 437 416 418 439 409 440 442 411 443 445 531 384 447 532 448 450 535 451 320 510 400 454 436 455 456 437 438 458 538 459 461 540 462 464 542 465 467 544 468 432 311 312 471 294 472 474 425 475 453 305 307 423 308 310 479 571 340 480 328 330 482 331 333 484 440 485 443 346 347 487 572 488 435 313 315 491 637 492 446 571 479 495 638 496 498 575 499 501 576 502 504 577 505 305 399 427 401 429 430 396 282 280 313 414 507 417 424 426 509 578 510 322 579 421 511 531 445 328 404 512 406 456 457 334 581 513 515 583 338 340 403 431 485 509 319 410 579 322 517 585 518 519 587 520 521 589 355 523 361 398 524 292 290 429 545 525 526 358 395 492 380 415 527 382 416 528 373 409 529 375 411 530 345 384 532 547 533 534 548 451 536 363 400 512 434 436 456 549 527 537 550 538 539 551 540 541 552 542 543 553 544 470 312 361 473 472 292 545 474 476 526 477 307 492 637 378 479 342 382 481 330 373 529 483 333 484 343 345 546 367 533 489 488 548 490 315 363 493 492 434 494 479 527 497 496 550 500 499 551 541 503 502 543 504 506 554 360 397 426 425 474 428 288 286 430 266 263 341 433 432 436 435 490 555 438 418 441 440 484 444 443 486 445 446 494 447 449 557 450 452 559 321 320 453 329 455 561 332 457 438 460 459 562 463 462 564 466 465 566 469 468 568 570 359 360 395 396 311 471 397 296 425 398 273 400 399 305 423 402 401 383 403 340 405 404 328 482 407 406 409 408 485 411 410 346 487 413 412 415 414 313 323 422 423 446 384 383 639 628 574 628 387 574 387 640 641 641 642 387 642 643 387 643 644 573 573 645 574 643 573 387 389 388 575 390 392 576 577 393 394 508 471 473 401 364 545 357 284 282 414 379 554 381 523 424 561 536 510 579 593 420 511 594 530 404 368 493 371 549 456 580 596 513 515 597 582 403 366 526 408 578 509 374 593 579 584 598 585 586 599 587 588 600 589 590 601 591 507 397 471 362 524 427 317 474 545 306 286 284 379 627 570 341 470 523 455 490 536 593 555 419 556 484 530 595 491 493 326 494 549 580 558 557 597 560 559 366 321 477 372 561 578 332 555 593 563 562 598 565 564 599 588 567 566 590 569 568 362 314 473 </p>
			</triangles>
		</mesh>
	</geometry>
</library_geometries>
<library_visual_scenes>
	<visual_scene id="id-scene-1" name="scene">
		<node id="collision" name="collision" type="NODE">
			<matrix sid="transform"> 1.0 0.0 0.0 0.0 0.0 1.0 0.0 0.0 0.0 0.0 1.0 0.0 0.0 0.0 0.0 1.0  </matrix>
				<extra>
					<technique profile="GODOT">
						<empty_draw_type>PLAIN_AXES</empty_draw_type>
					</technique>
				</extra>
			<node id="collisionmesh" name="collisionmesh" type="NODE">
				<matrix sid="transform"> 1.0 0.0 0.0 0.0 0.0 1.0 0.0 0.0 0.0 0.0 1.0 0.0 0.0 0.0 0.0 1.0  </matrix>
				<instance_geometry url="#id-mesh-2">
				</instance_geometry>
			</node>
		</node>
		<node id="the_barrel" name="the_barrel" type="NODE">
			<matrix sid="transform"> 1.0 0.0 0.0 0.0 0.0 1.0 0.0 0.0 0.0 0.0 1.0 0.0 0.0 0.0 0.0 1.0  </matrix>
			<instance_geometry url="#id-mesh-8">
				<bind_material>
					<technique_common>
						<instance_material symbol="id-trimat-9" target="#id-material-7"/>
					</technique_common>
				</bind_material>
			</instance_geometry>
		</node>
	</visual_scene>
</library_visual_scenes>
<scene>
	<instance_visual_scene url="#id-scene-1" />
</scene>
</COLLADA>
